ARIMA
…
Leitura dos dados

# Data loading 
petrol = read_csv("/cloud/project/Dados/MCOILBRENTEU.csv", show_col_types = FALSE) %>% 
  as_tibble()

# Ajuste do nome das colunas para minúsculo
petrol = petrol %>% 
  rename_with(tolower)

# Visualizando os dados
petrol

## # A tibble: 419 × 2
##    date       mcoilbrenteu
##    <date>            <dbl>
##  1 1987-05-01         18.6
##  2 1987-06-01         18.9
##  3 1987-07-01         19.9
##  4 1987-08-01         19.0
##  5 1987-09-01         18.3
##  6 1987-10-01         18.8
##  7 1987-11-01         17.8
##  8 1987-12-01         17.0
##  9 1988-01-01         16.8
## 10 1988-02-01         15.7
## # … with 409 more rows
…
Utilizaremos o valor exato de lambda para fazer a transformação
Box-Cox.

lambda = boxcox$x[which.max(boxcox$y)]
petrol = petrol %>% mutate(bc_petrol = (serie_petrol_ajust^lambda - 1)/lambda)

petrol

## # A tibble: 419 × 4
##    date       mcoilbrenteu serie_ajust bc_petrol
##    <date>            <dbl>       <dbl>     <dbl>
##  1 1987-05-01         18.6        17.7      2.49
##  2 1987-06-01         18.9        17.9      2.50
##  3 1987-07-01         19.9        18.3      2.52
##  4 1987-08-01         19.0        17.8      2.50
##  5 1987-09-01         18.3        17.2      2.47
##  6 1987-10-01         18.8        18.3      2.52
##  7 1987-11-01         17.8        18.9      2.54
##  8 1987-12-01         17.0        19.3      2.56
##  9 1988-01-01         16.8        18.7      2.53
## 10 1988-02-01         15.7        16.7      2.45
## # … with 409 more rows
…
