Business Cycle
…
# Data loading 
pib = read.csv("C:/Users/Macaubas/Desktop/Mestrado/Cadeiras/Series/Projeto/Series Temporal/Dados/pib_trimestral_brasil.csv", sep = ',') %>% 
  rename(data = ï..data)  %>%
  dplyr::select(data, pib) %>% 
  as_tibble()

# Ajustando coluna de datas
pib = pib %>% 
  mutate(data = as.Date(as.yearqtr(format(data), "%Y T%q")))

# Visualizando os dados
pib

## # A tibble: 104 x 2
##    data           pib
##    <date>       <dbl>
##  1 1996-01-01 189323.
##  2 1996-04-01 204611.
##  3 1996-07-01 221513.
##  4 1996-10-01 239316.
##  5 1997-01-01 219117.
##  6 1997-04-01 232890.
##  7 1997-07-01 246178.
##  8 1997-10-01 253904.
##  9 1998-01-01 235701.
## 10 1998-04-01 251936.
## # ... with 94 more rows
…
