SARIMA
…
Carregamento dos dados

# Data loading 
petrol = read.csv("C:/Users/Macaubas/Desktop/Mestrado/Cadeiras/Series/Projeto/Series Temporal/Dados/MCOILBRENTEU.csv") %>% 
  as_tibble()

# Ajuste do nome das colunas para minúsculo
petrol = petrol %>% 
  rename_with(tolower)

# Visualizando os dados
petrol

## # A tibble: 419 x 2
##    date       mcoilbrenteu
##    <chr>             <dbl>
##  1 1987-05-01         18.6
##  2 1987-06-01         18.9
##  3 1987-07-01         19.9
##  4 1987-08-01         19.0
##  5 1987-09-01         18.3
##  6 1987-10-01         18.8
##  7 1987-11-01         17.8
##  8 1987-12-01         17.0
##  9 1988-01-01         16.8
## 10 1988-02-01         15.7
## # ... with 409 more rows
…
